#  ==========================================================================
#  
#  Wavefront OBJ format exported by Red-i Productions' "Riptide Pro"
#     (a commercial plugin for Cinema 4D PC & Mac, R9.6 or later)
#  
#  Red-i Productions
#  http://skinprops.com
#  
#  ==========================================================================
o white
v -250 -250 250
v -1 0.01 0.125
v 250 -250 250
v 1 0.01 0.125
v 250 -250 -250
v 1 0.01 -0.125
v -250 -250 -250
v -1 0.01 -0.125
v 4.36913 0.01 0.125
v 6.36913 0.01 0.125
v 6.36913 0.01 -0.125
v 4.36913 0.01 -0.125
v 9.73826 0.01 0.125
v 11.7383 0.01 0.125
v 11.7383 0.01 -0.125
v 9.73826 0.01 -0.125
v 15.1074 0.01 0.125
v 17.1074 0.01 0.125
v 17.1074 0.01 -0.125
v 15.1074 0.01 -0.125
v 20.4765 0.01 0.125
v 22.4765 0.01 0.125
v 22.4765 0.01 -0.125
v 20.4765 0.01 -0.125
v 25.8456 0.01 0.125
v 27.8456 0.01 0.125
v 27.8456 0.01 -0.125
v 25.8456 0.01 -0.125
v 31.2148 0.01 0.125
v 33.2148 0.01 0.125
v 33.2148 0.01 -0.125
v 31.2148 0.01 -0.125
v 36.5839 0.01 0.125
v 38.5839 0.01 0.125
v 38.5839 0.01 -0.125
v 36.5839 0.01 -0.125
v 41.953 0.01 0.125
v 43.953 0.01 0.125
v 43.953 0.01 -0.125
v 41.953 0.01 -0.125
v 47.3221 0.01 0.125
v 49.3221 0.01 0.125
v 49.3221 0.01 -0.125
v 47.3221 0.01 -0.125
v 52.6913 0.01 0.125
v 54.6913 0.01 0.125
v 54.6913 0.01 -0.125
v 52.6913 0.01 -0.125
v 58.0604 0.01 0.125
v 60.0604 0.01 0.125
v 60.0604 0.01 -0.125
v 58.0604 0.01 -0.125
v 63.4295 0.01 0.125
v 65.4295 0.01 0.125
v 65.4295 0.01 -0.125
v 63.4295 0.01 -0.125
v 68.7987 0.01 0.125
v 70.7987 0.01 0.125
v 70.7987 0.01 -0.125
v 68.7987 0.01 -0.125
v 74.1678 0.01 0.125
v 76.1678 0.01 0.125
v 76.1678 0.01 -0.125
v 74.1678 0.01 -0.125
v 79.5369 0.01 0.125
v 81.5369 0.01 0.125
v 81.5369 0.01 -0.125
v 79.5369 0.01 -0.125
v 84.906 0.01 0.125
v 86.906 0.01 0.125
v 86.906 0.01 -0.125
v 84.906 0.01 -0.125
v 90.2752 0.01 0.125
v 92.2752 0.01 0.125
v 92.2752 0.01 -0.125
v 90.2752 0.01 -0.125
v 95.6443 0.01 0.125
v 97.6443 0.01 0.125
v 97.6443 0.01 -0.125
v 95.6443 0.01 -0.125
v 101.013 0.01 0.125
v 103.013 0.01 0.125
v 103.013 0.01 -0.125
v 101.013 0.01 -0.125
v 106.383 0.01 0.125
v 108.383 0.01 0.125
v 108.383 0.01 -0.125
v 106.383 0.01 -0.125
v 111.752 0.01 0.125
v 113.752 0.01 0.125
v 113.752 0.01 -0.125
v 111.752 0.01 -0.125
v 117.121 0.01 0.125
v 119.121 0.01 0.125
v 119.121 0.01 -0.125
v 117.121 0.01 -0.125
v 122.49 0.01 0.125
v 124.49 0.01 0.125
v 124.49 0.01 -0.125
v 122.49 0.01 -0.125
v 127.859 0.01 0.125
v 129.859 0.01 0.125
v 129.859 0.01 -0.125
v 127.859 0.01 -0.125
v 133.228 0.01 0.125
v 135.228 0.01 0.125
v 135.228 0.01 -0.125
v 133.228 0.01 -0.125
v 138.597 0.01 0.125
v 140.597 0.01 0.125
v 140.597 0.01 -0.125
v 138.597 0.01 -0.125
v 143.966 0.01 0.125
v 145.966 0.01 0.125
v 145.966 0.01 -0.125
v 143.966 0.01 -0.125
v 149.336 0.01 0.125
v 151.336 0.01 0.125
v 151.336 0.01 -0.125
v 149.336 0.01 -0.125
v 154.705 0.01 0.125
v 156.705 0.01 0.125
v 156.705 0.01 -0.125
v 154.705 0.01 -0.125
v 160.074 0.01 0.125
v 162.074 0.01 0.125
v 162.074 0.01 -0.125
v 160.074 0.01 -0.125
v 165.443 0.01 0.125
v 167.443 0.01 0.125
v 167.443 0.01 -0.125
v 165.443 0.01 -0.125
v 170.812 0.01 0.125
v 172.812 0.01 0.125
v 172.812 0.01 -0.125
v 170.812 0.01 -0.125
v 176.181 0.01 0.125
v 178.181 0.01 0.125
v 178.181 0.01 -0.125
v 176.181 0.01 -0.125
v 181.55 0.01 0.125
v 183.55 0.01 0.125
v 183.55 0.01 -0.125
v 181.55 0.01 -0.125
v 186.919 0.01 0.125
v 188.919 0.01 0.125
v 188.919 0.01 -0.125
v 186.919 0.01 -0.125
v 192.289 0.01 0.125
v 194.289 0.01 0.125
v 194.289 0.01 -0.125
v 192.289 0.01 -0.125
v 197.658 0.01 0.125
v 199.658 0.01 0.125
v 199.658 0.01 -0.125
v 197.658 0.01 -0.125
v 203.027 0.01 0.125
v 205.027 0.01 0.125
v 205.027 0.01 -0.125
v 203.027 0.01 -0.125
v 208.396 0.01 0.125
v 210.396 0.01 0.125
v 210.396 0.01 -0.125
v 208.396 0.01 -0.125
v 213.765 0.01 0.125
v 215.765 0.01 0.125
v 215.765 0.01 -0.125
v 213.765 0.01 -0.125
v 219.134 0.01 0.125
v 221.134 0.01 0.125
v 221.134 0.01 -0.125
v 219.134 0.01 -0.125
v 224.503 0.01 0.125
v 226.503 0.01 0.125
v 226.503 0.01 -0.125
v 224.503 0.01 -0.125
v 229.872 0.01 0.125
v 231.872 0.01 0.125
v 231.872 0.01 -0.125
v 229.872 0.01 -0.125
v 235.242 0.01 0.125
v 237.242 0.01 0.125
v 237.242 0.01 -0.125
v 235.242 0.01 -0.125
v 240.611 0.01 0.125
v 242.611 0.01 0.125
v 242.611 0.01 -0.125
v 240.611 0.01 -0.125
v 245.98 0.01 0.125
v 247.98 0.01 0.125
v 247.98 0.01 -0.125
v 245.98 0.01 -0.125
v 251.349 0.01 0.125
v 253.349 0.01 0.125
v 253.349 0.01 -0.125
v 251.349 0.01 -0.125
v 256.718 0.01 0.125
v 258.718 0.01 0.125
v 258.718 0.01 -0.125
v 256.718 0.01 -0.125
v 262.087 0.01 0.125
v 264.087 0.01 0.125
v 264.087 0.01 -0.125
v 262.087 0.01 -0.125
v 267.456 0.01 0.125
v 269.456 0.01 0.125
v 269.456 0.01 -0.125
v 267.456 0.01 -0.125
v 272.826 0.01 0.125
v 274.826 0.01 0.125
v 274.826 0.01 -0.125
v 272.826 0.01 -0.125
v 278.195 0.01 0.125
v 280.195 0.01 0.125
v 280.195 0.01 -0.125
v 278.195 0.01 -0.125
v 283.564 0.01 0.125
v 285.564 0.01 0.125
v 285.564 0.01 -0.125
v 283.564 0.01 -0.125
v 288.933 0.01 0.125
v 290.933 0.01 0.125
v 290.933 0.01 -0.125
v 288.933 0.01 -0.125
v 294.302 0.01 0.125
v 296.302 0.01 0.125
v 296.302 0.01 -0.125
v 294.302 0.01 -0.125
v 299.671 0.01 0.125
v 301.671 0.01 0.125
v 301.671 0.01 -0.125
v 299.671 0.01 -0.125
v 305.04 0.01 0.125
v 307.04 0.01 0.125
v 307.04 0.01 -0.125
v 305.04 0.01 -0.125
v 310.409 0.01 0.125
v 312.409 0.01 0.125
v 312.409 0.01 -0.125
v 310.409 0.01 -0.125
v 315.779 0.01 0.125
v 317.779 0.01 0.125
v 317.779 0.01 -0.125
v 315.779 0.01 -0.125
v 321.148 0.01 0.125
v 323.148 0.01 0.125
v 323.148 0.01 -0.125
v 321.148 0.01 -0.125
v 326.517 0.01 0.125
v 328.517 0.01 0.125
v 328.517 0.01 -0.125
v 326.517 0.01 -0.125
v 331.886 0.01 0.125
v 333.886 0.01 0.125
v 333.886 0.01 -0.125
v 331.886 0.01 -0.125
v 337.255 0.01 0.125
v 339.255 0.01 0.125
v 339.255 0.01 -0.125
v 337.255 0.01 -0.125
v 342.624 0.01 0.125
v 344.624 0.01 0.125
v 344.624 0.01 -0.125
v 342.624 0.01 -0.125
v 347.993 0.01 0.125
v 349.993 0.01 0.125
v 349.993 0.01 -0.125
v 347.993 0.01 -0.125
v 353.362 0.01 0.125
v 355.362 0.01 0.125
v 355.362 0.01 -0.125
v 353.362 0.01 -0.125
v 358.732 0.01 0.125
v 360.732 0.01 0.125
v 360.732 0.01 -0.125
v 358.732 0.01 -0.125
v 364.101 0.01 0.125
v 366.101 0.01 0.125
v 366.101 0.01 -0.125
v 364.101 0.01 -0.125
v 369.47 0.01 0.125
v 371.47 0.01 0.125
v 371.47 0.01 -0.125
v 369.47 0.01 -0.125
v 374.839 0.01 0.125
v 376.839 0.01 0.125
v 376.839 0.01 -0.125
v 374.839 0.01 -0.125
v 380.208 0.01 0.125
v 382.208 0.01 0.125
v 382.208 0.01 -0.125
v 380.208 0.01 -0.125
v 385.577 0.01 0.125
v 387.577 0.01 0.125
v 387.577 0.01 -0.125
v 385.577 0.01 -0.125
v 390.946 0.01 0.125
v 392.946 0.01 0.125
v 392.946 0.01 -0.125
v 390.946 0.01 -0.125
v 396.315 0.01 0.125
v 398.315 0.01 0.125
v 398.315 0.01 -0.125
v 396.315 0.01 -0.125
v 401.685 0.01 0.125
v 403.685 0.01 0.125
v 403.685 0.01 -0.125
v 401.685 0.01 -0.125
v 407.054 0.01 0.125
v 409.054 0.01 0.125
v 409.054 0.01 -0.125
v 407.054 0.01 -0.125
v 412.423 0.01 0.125
v 414.423 0.01 0.125
v 414.423 0.01 -0.125
v 412.423 0.01 -0.125
v 417.792 0.01 0.125
v 419.792 0.01 0.125
v 419.792 0.01 -0.125
v 417.792 0.01 -0.125
v 423.161 0.01 0.125
v 425.161 0.01 0.125
v 425.161 0.01 -0.125
v 423.161 0.01 -0.125
v 428.53 0.01 0.125
v 430.53 0.01 0.125
v 430.53 0.01 -0.125
v 428.53 0.01 -0.125
v 433.899 0.01 0.125
v 435.899 0.01 0.125
v 435.899 0.01 -0.125
v 433.899 0.01 -0.125
v 439.268 0.01 0.125
v 441.268 0.01 0.125
v 441.268 0.01 -0.125
v 439.268 0.01 -0.125
v 444.638 0.01 0.125
v 446.638 0.01 0.125
v 446.638 0.01 -0.125
v 444.638 0.01 -0.125
v 450.007 0.01 0.125
v 452.007 0.01 0.125
v 452.007 0.01 -0.125
v 450.007 0.01 -0.125
v 455.376 0.01 0.125
v 457.376 0.01 0.125
v 457.376 0.01 -0.125
v 455.376 0.01 -0.125
v 460.745 0.01 0.125
v 462.745 0.01 0.125
v 462.745 0.01 -0.125
v 460.745 0.01 -0.125
v 466.114 0.01 0.125
v 468.114 0.01 0.125
v 468.114 0.01 -0.125
v 466.114 0.01 -0.125
v 471.483 0.01 0.125
v 473.483 0.01 0.125
v 473.483 0.01 -0.125
v 471.483 0.01 -0.125
v 476.852 0.01 0.125
v 478.852 0.01 0.125
v 478.852 0.01 -0.125
v 476.852 0.01 -0.125
v 482.221 0.01 0.125
v 484.221 0.01 0.125
v 484.221 0.01 -0.125
v 482.221 0.01 -0.125
v 487.591 0.01 0.125
v 489.591 0.01 0.125
v 489.591 0.01 -0.125
v 487.591 0.01 -0.125
v 492.96 0.01 0.125
v 494.96 0.01 0.125
v 494.96 0.01 -0.125
v 492.96 0.01 -0.125
v 498.329 0.01 0.125
v 500.329 0.01 0.125
v 500.329 0.01 -0.125
v 498.329 0.01 -0.125
v 503.698 0.01 0.125
v 505.698 0.01 0.125
v 505.698 0.01 -0.125
v 503.698 0.01 -0.125
v 509.067 0.01 0.125
v 511.067 0.01 0.125
v 511.067 0.01 -0.125
v 509.067 0.01 -0.125
v 514.436 0.01 0.125
v 516.436 0.01 0.125
v 516.436 0.01 -0.125
v 514.436 0.01 -0.125
v 519.805 0.01 0.125
v 521.805 0.01 0.125
v 521.805 0.01 -0.125
v 519.805 0.01 -0.125
v 525.174 0.01 0.125
v 527.174 0.01 0.125
v 527.174 0.01 -0.125
v 525.174 0.01 -0.125
v 530.544 0.01 0.125
v 532.544 0.01 0.125
v 532.544 0.01 -0.125
v 530.544 0.01 -0.125
v 535.913 0.01 0.125
v 537.913 0.01 0.125
v 537.913 0.01 -0.125
v 535.913 0.01 -0.125
v 541.282 0.01 0.125
v 543.282 0.01 0.125
v 543.282 0.01 -0.125
v 541.282 0.01 -0.125
v 546.651 0.01 0.125
v 548.651 0.01 0.125
v 548.651 0.01 -0.125
v 546.651 0.01 -0.125
v 552.02 0.01 0.125
v 554.02 0.01 0.125
v 554.02 0.01 -0.125
v 552.02 0.01 -0.125
v 557.389 0.01 0.125
v 559.389 0.01 0.125
v 559.389 0.01 -0.125
v 557.389 0.01 -0.125
v 562.758 0.01 0.125
v 564.758 0.01 0.125
v 564.758 0.01 -0.125
v 562.758 0.01 -0.125
v 568.128 0.01 0.125
v 570.128 0.01 0.125
v 570.128 0.01 -0.125
v 568.128 0.01 -0.125
v 573.497 0.01 0.125
v 575.497 0.01 0.125
v 575.497 0.01 -0.125
v 573.497 0.01 -0.125
v 578.866 0.01 0.125
v 580.866 0.01 0.125
v 580.866 0.01 -0.125
v 578.866 0.01 -0.125
v 584.235 0.01 0.125
v 586.235 0.01 0.125
v 586.235 0.01 -0.125
v 584.235 0.01 -0.125
v 589.604 0.01 0.125
v 591.604 0.01 0.125
v 591.604 0.01 -0.125
v 589.604 0.01 -0.125
v 594.973 0.01 0.125
v 596.973 0.01 0.125
v 596.973 0.01 -0.125
v 594.973 0.01 -0.125
v 600.342 0.01 0.125
v 602.342 0.01 0.125
v 602.342 0.01 -0.125
v 600.342 0.01 -0.125
v 605.711 0.01 0.125
v 607.711 0.01 0.125
v 607.711 0.01 -0.125
v 605.711 0.01 -0.125
v 611.081 0.01 0.125
v 613.081 0.01 0.125
v 613.081 0.01 -0.125
v 611.081 0.01 -0.125
v 616.45 0.01 0.125
v 618.45 0.01 0.125
v 618.45 0.01 -0.125
v 616.45 0.01 -0.125
v 621.819 0.01 0.125
v 623.819 0.01 0.125
v 623.819 0.01 -0.125
v 621.819 0.01 -0.125
v 627.188 0.01 0.125
v 629.188 0.01 0.125
v 629.188 0.01 -0.125
v 627.188 0.01 -0.125
v 632.557 0.01 0.125
v 634.557 0.01 0.125
v 634.557 0.01 -0.125
v 632.557 0.01 -0.125
v 637.926 0.01 0.125
v 639.926 0.01 0.125
v 639.926 0.01 -0.125
v 637.926 0.01 -0.125
v 643.295 0.01 0.125
v 645.295 0.01 0.125
v 645.295 0.01 -0.125
v 643.295 0.01 -0.125
v 648.664 0.01 0.125
v 650.664 0.01 0.125
v 650.664 0.01 -0.125
v 648.664 0.01 -0.125
v 654.034 0.01 0.125
v 656.034 0.01 0.125
v 656.034 0.01 -0.125
v 654.034 0.01 -0.125
v 659.403 0.01 0.125
v 661.403 0.01 0.125
v 661.403 0.01 -0.125
v 659.403 0.01 -0.125
v 664.772 0.01 0.125
v 666.772 0.01 0.125
v 666.772 0.01 -0.125
v 664.772 0.01 -0.125
v 670.141 0.01 0.125
v 672.141 0.01 0.125
v 672.141 0.01 -0.125
v 670.141 0.01 -0.125
v 675.51 0.01 0.125
v 677.51 0.01 0.125
v 677.51 0.01 -0.125
v 675.51 0.01 -0.125
v 680.879 0.01 0.125
v 682.879 0.01 0.125
v 682.879 0.01 -0.125
v 680.879 0.01 -0.125
v 686.248 0.01 0.125
v 688.248 0.01 0.125
v 688.248 0.01 -0.125
v 686.248 0.01 -0.125
v 691.617 0.01 0.125
v 693.617 0.01 0.125
v 693.617 0.01 -0.125
v 691.617 0.01 -0.125
v 696.987 0.01 0.125
v 698.987 0.01 0.125
v 698.987 0.01 -0.125
v 696.987 0.01 -0.125
v 702.356 0.01 0.125
v 704.356 0.01 0.125
v 704.356 0.01 -0.125
v 702.356 0.01 -0.125
v 707.725 0.01 0.125
v 709.725 0.01 0.125
v 709.725 0.01 -0.125
v 707.725 0.01 -0.125
v 713.094 0.01 0.125
v 715.094 0.01 0.125
v 715.094 0.01 -0.125
v 713.094 0.01 -0.125
v 718.463 0.01 0.125
v 720.463 0.01 0.125
v 720.463 0.01 -0.125
v 718.463 0.01 -0.125
v 723.832 0.01 0.125
v 725.832 0.01 0.125
v 725.832 0.01 -0.125
v 723.832 0.01 -0.125
v 729.201 0.01 0.125
v 731.201 0.01 0.125
v 731.201 0.01 -0.125
v 729.201 0.01 -0.125
v 734.57 0.01 0.125
v 736.57 0.01 0.125
v 736.57 0.01 -0.125
v 734.57 0.01 -0.125
v 739.94 0.01 0.125
v 741.94 0.01 0.125
v 741.94 0.01 -0.125
v 739.94 0.01 -0.125
v 745.309 0.01 0.125
v 747.309 0.01 0.125
v 747.309 0.01 -0.125
v 745.309 0.01 -0.125
v 750.678 0.01 0.125
v 752.678 0.01 0.125
v 752.678 0.01 -0.125
v 750.678 0.01 -0.125
v 756.047 0.01 0.125
v 758.047 0.01 0.125
v 758.047 0.01 -0.125
v 756.047 0.01 -0.125
v 761.416 0.01 0.125
v 763.416 0.01 0.125
v 763.416 0.01 -0.125
v 761.416 0.01 -0.125
v 766.785 0.01 0.125
v 768.785 0.01 0.125
v 768.785 0.01 -0.125
v 766.785 0.01 -0.125
v 772.154 0.01 0.125
v 774.154 0.01 0.125
v 774.154 0.01 -0.125
v 772.154 0.01 -0.125
v 777.523 0.01 0.125
v 779.523 0.01 0.125
v 779.523 0.01 -0.125
v 777.523 0.01 -0.125
v 782.893 0.01 0.125
v 784.893 0.01 0.125
v 784.893 0.01 -0.125
v 782.893 0.01 -0.125
v 788.262 0.01 0.125
v 790.262 0.01 0.125
v 790.262 0.01 -0.125
v 788.262 0.01 -0.125
v 793.631 0.01 0.125
v 795.631 0.01 0.125
v 795.631 0.01 -0.125
v 793.631 0.01 -0.125
v 799 0.01 0.125
v 801 0.01 0.125
v 801 0.01 -0.125
v 799 0.01 -0.125
# 604 vertices

vn 0 1 -0
vn 0 1 -0
vn 0 1 -0
vn 0 1 -0
vn 0 1 -0
vn 0 1 -0
vn 0 1 -0
vn 0 1 -0
vn 0 1 -0
vn 0 1 -0
vn 0 1 -0
vn 0 1 -0
vn 0 1 -0
vn 0 1 -0
vn 0 1 -0
vn 0 1 -0
vn 0 1 -0
vn 0 1 -0
vn 0 1 -0
vn 0 1 -0
vn 0 1 -0
vn 0 1 -0
vn 0 1 -0
vn 0 1 -0
vn 0 1 -0
vn 0 1 -0
vn 0 1 -0
vn 0 1 -0
vn 0 1 -0
vn 0 1 -0
vn 0 1 -0
vn 0 1 -0
vn 0 1 -0
vn 0 1 -0
vn 0 1 -0
vn 0 1 -0
vn 0 1 -0
vn 0 1 -0
vn 0 1 -0
vn 0 1 -0
vn 0 1 -0
vn 0 1 -0
vn 0 1 -0
vn 0 1 -0
vn 0 1 -0
vn 0 1 -0
vn 0 1 -0
vn 0 1 -0
vn 0 1 -0
vn 0 1 -0
vn 0 1 -0
vn 0 1 -0
vn 0 1 -0
vn 0 1 -0
vn 0 1 -0
vn 0 1 -0
vn 0 1 -0
vn 0 1 -0
vn 0 1 -0
vn 0 1 -0
vn 0 1 -0
vn 0 1 -0
vn 0 1 -0
vn 0 1 -0
vn 0 1 -0
vn 0 1 -0
vn 0 1 -0
vn 0 1 -0
vn 0 1 -0
vn 0 1 -0
vn 0 1 -0
vn 0 1 -0
vn 0 1 -0
vn 0 1 -0
vn 0 1 -0
vn 0 1 -0
vn 0 1 -0
vn 0 1 -0
vn 0 1 -0
vn 0 1 -0
vn 0 1 -0
vn 0 1 -0
vn 0 1 -0
vn 0 1 -0
vn 0 1 -0
vn 0 1 -0
vn 0 1 -0
vn 0 1 -0
vn 0 1 -0
vn 0 1 -0
vn 0 1 -0
vn 0 1 -0
vn 0 1 -0
vn 0 1 -0
vn 0 1 -0
vn 0 1 -0
vn 0 1 -0
vn 0 1 -0
vn 0 1 -0
vn 0 1 -0
vn 0 1 -0
vn 0 1 -0
vn 0 1 -0
vn 0 1 -0
vn 0 1 -0
vn 0 1 -0
vn 0 1 -0
vn 0 1 -0
vn 0 1 -0
vn 0 1 -0
vn 0 1 -0
vn 0 1 -0
vn 0 1 -0
vn 0 1 -0
vn 0 1 -0
vn 0 1 -0
vn 0 1 -0
vn 0 1 -0
vn 0 1 -0
vn 0 1 -0
vn 0 1 -0
vn 0 1 -0
vn 0 1 -0
vn 0 1 -0
vn 0 1 -0
vn 0 1 -0
vn 0 1 -0
vn 0 1 -0
vn 0 1 -0
vn 0 1 -0
vn 0 1 -0
vn 0 1 -0
vn 0 1 -0
vn 0 1 -0
vn 0 1 -0
vn 0 1 -0
vn 0 1 -0
vn 0 1 -0
vn 0 1 -0
vn 0 1 -0
vn 0 1 -0
vn 0 1 -0
vn 0 1 -0
vn 0 1 -0
vn 0 1 -0
vn 0 1 -0
vn 0 1 -0
vn 0 1 -0
vn 0 1 -0
vn 0 1 -0
vn 0 1 -0
vn 0 1 -0
vn 0 1 -0
vn 0 1 -0
vn 0 1 -0
vn 0 1 -0
vn 0 1 -0
vn 0 1 -0
vn 0 1 -0
vn 0 1 -0
vn 0 1 -0
vn 0 1 -0
vn 0 1 -0
vn 0 1 -0
vn 0 1 -0
vn 0 1 -0
vn 0 1 -0
vn 0 1 -0
vn 0 1 -0
vn 0 1 -0
vn 0 1 -0
vn 0 1 -0
vn 0 1 -0
vn 0 1 -0
vn 0 1 -0
vn 0 1 -0
vn 0 1 -0
vn 0 1 -0
vn 0 1 -0
vn 0 1 -0
vn 0 1 -0
vn 0 1 -0
vn 0 1 -0
vn 0 1 -0
vn 0 1 -0
vn 0 1 -0
vn 0 1 -0
vn 0 1 -0
vn 0 1 -0
vn 0 1 -0
vn 0 1 -0
vn 0 1 -0
vn 0 1 -0
vn 0 1 -0
vn 0 1 -0
vn 0 1 -0
vn 0 1 -0
vn 0 1 -0
vn 0 1 -0
vn 0 1 -0
vn 0 1 -0
vn 0 1 -0
vn 0 1 -0
vn 0 1 -0
vn 0 1 -0
vn 0 1 -0
vn 0 1 -0
vn 0 1 -0
vn 0 1 -0
vn 0 1 -0
vn 0 1 -0
vn 0 1 -0
vn 0 1 -0
vn 0 1 -0
vn 0 1 -0
vn 0 1 -0
vn 0 1 -0
vn 0 1 -0
vn 0 1 -0
vn 0 1 -0
vn 0 1 -0
vn 0 1 -0
vn 0 1 -0
vn 0 1 -0
vn 0 1 -0
vn 0 1 -0
vn 0 1 -0
vn 0 1 -0
vn 0 1 -0
vn 0 1 -0
vn 0 1 -0
vn 0 1 -0
vn 0 1 -0
vn 0 1 -0
vn 0 1 -0
vn 0 1 -0
vn 0 1 -0
vn 0 1 -0
vn 0 1 -0
vn 0 1 -0
vn 0 1 -0
vn 0 1 -0
vn 0 1 -0
vn 0 1 -0
vn 0 1 -0
vn 0 1 -0
vn 0 1 -0
vn 0 1 -0
vn 0 1 -0
vn 0 1 -0
vn 0 1 -0
vn 0 1 -0
vn 0 1 -0
vn 0 1 -0
vn 0 1 -0
vn 0 1 -0
vn 0 1 -0
vn 0 1 -0
vn 0 1 -0
vn 0 1 -0
vn 0 1 -0
vn 0 1 -0
vn 0 1 -0
vn 0 1 -0
vn 0 1 -0
vn 0 1 -0
vn 0 1 -0
vn 0 1 -0
vn 0 1 -0
vn 0 1 -0
vn 0 1 -0
vn 0 1 -0
vn 0 1 -0
vn 0 1 -0
vn 0 1 -0
vn 0 1 -0
vn 0 1 -0
vn 0 1 -0
vn 0 1 -0
vn 0 1 -0
vn 0 1 -0
vn 0 1 -0
vn 0 1 -0
vn 0 1 -0
vn 0 1 -0
vn 0 1 -0
vn 0 1 -0
vn 0 1 -0
vn 0 1 -0
vn 0 1 -0
vn 0 1 -0
vn 0 1 -0
vn 0 1 -0
vn 0 1 -0
vn 0 1 -0
vn 0 1 -0
vn 0 1 -0
vn 0 1 -0
vn 0 1 -0
vn 0 1 -0
vn 0 1 -0
vn 0 1 -0
vn 0 1 -0
vn 0 1 -0
vn 0 1 -0
vn 0 1 -0
vn 0 1 -0
vn 0 1 -0
vn 0 1 -0
vn 0 1 -0
vn 0 1 -0
vn 0 1 -0
vn 0 1 -0
vn 0 1 -0
vn 0 1 -0
vn 0 1 -0
vn 0 1 -0
vn 0 1 -0
vn 0 1 -0
vn 0 1 -0
vn 0 1 -0
vn 0 1 -0
vn 0 1 -0
vn 0 1 -0
vn 0 1 -0
vn 0 1 -0
vn 0 1 -0
vn 0 1 -0
vn 0 1 -0
vn 0 1 -0
vn 0 1 -0
vn 0 1 -0
vn 0 1 -0
vn 0 1 -0
vn 0 1 -0
vn 0 1 -0
vn 0 1 -0
vn 0 1 -0
vn 0 1 -0
vn 0 1 -0
vn 0 1 -0
vn 0 1 -0
vn 0 1 -0
vn 0 1 -0
vn 0 1 -0
vn 0 1 -0
vn 0 1 -0
vn 0 1 -0
vn 0 1 -0
vn 0 1 -0
vn 0 1 -0
vn 0 1 -0
vn 0 1 -0
vn 0 1 -0
vn 0 1 -0
vn 0 1 -0
vn 0 1 -0
vn 0 1 -0
vn 0 1 -0
vn 0 1 -0
vn 0 1 -0
vn 0 1 -0
vn 0 1 -0
vn 0 1 -0
vn 0 1 -0
vn 0 1 -0
vn 0 1 -0
vn 0 1 -0
vn 0 1 -0
vn 0 1 -0
vn 0 1 -0
vn 0 1 -0
vn 0 1 -0
vn 0 1 -0
vn 0 1 -0
vn 0 1 -0
vn 0 1 -0
vn 0 1 -0
vn 0 1 -0
vn 0 1 -0
vn 0 1 -0
vn 0 1 -0
vn 0 1 -0
vn 0 1 -0
vn 0 1 -0
vn 0 1 -0
vn 0 1 -0
vn 0 1 -0
vn 0 1 -0
vn 0 1 -0
vn 0 1 -0
vn 0 1 -0
vn 0 1 -0
vn 0 1 -0
vn 0 1 -0
vn 0 1 -0
vn 0 1 -0
vn 0 1 -0
vn 0 1 -0
vn 0 1 -0
vn 0 1 -0
vn 0 1 -0
vn 0 1 -0
vn 0 1 -0
vn 0 1 -0
vn 0 1 -0
vn 0 1 -0
vn 0 1 -0
vn 0 1 -0
vn 0 1 -0
vn 0 1 -0
vn 0 1 -0
vn 0 1 -0
vn 0 1 -0
vn 0 1 -0
vn 0 1 -0
vn 0 1 -0
vn 0 1 -0
vn 0 1 -0
vn 0 1 -0
vn 0 1 -0
vn 0 1 -0
vn 0 1 -0
vn 0 1 -0
vn 0 1 -0
vn 0 1 -0
vn 0 1 -0
vn 0 1 -0
vn 0 1 -0
vn 0 1 -0
vn 0 1 -0
vn 0 1 -0
vn 0 1 -0
vn 0 1 -0
vn 0 1 -0
vn 0 1 -0
vn 0 1 -0
vn 0 1 -0
vn 0 1 -0
vn 0 1 -0
vn 0 1 -0
vn 0 1 -0
vn 0 1 -0
vn 0 1 -0
vn 0 1 -0
vn 0 1 -0
vn 0 1 -0
vn 0 1 -0
vn 0 1 -0
vn 0 1 -0
vn 0 1 -0
vn 0 1 -0
vn 0 1 -0
vn 0 1 -0
vn 0 1 -0
vn 0 1 -0
vn 0 1 -0
vn 0 1 -0
vn 0 1 -0
vn 0 1 -0
vn 0 1 -0
vn 0 1 -0
vn 0 1 -0
vn 0 1 -0
vn 0 1 -0
vn 0 1 -0
vn 0 1 -0
vn 0 1 -0
vn 0 1 -0
vn 0 1 -0
vn 0 1 -0
vn 0 1 -0
vn 0 1 -0
vn 0 1 -0
vn 0 1 -0
vn 0 1 -0
vn 0 1 -0
vn 0 1 -0
vn 0 1 -0
vn 0 1 -0
vn 0 1 -0
vn 0 1 -0
vn 0 1 -0
vn 0 1 -0
vn 0 1 -0
vn 0 1 -0
vn 0 1 -0
vn 0 1 -0
vn 0 1 -0
vn 0 1 -0
vn 0 1 -0
vn 0 1 -0
vn 0 1 -0
vn 0 1 -0
vn 0 1 -0
vn 0 1 -0
vn 0 1 -0
vn 0 1 -0
vn 0 1 -0
vn 0 1 -0
vn 0 1 -0
vn 0 1 -0
vn 0 1 -0
vn 0 1 -0
vn 0 1 -0
vn 0 1 -0
vn 0 1 -0
vn 0 1 -0
vn 0 1 -0
vn 0 1 -0
vn 0 1 -0
vn 0 1 -0
vn 0 1 -0
vn 0 1 -0
vn 0 1 -0
vn 0 1 -0
vn 0 1 -0
vn 0 1 -0
vn 0 1 -0
vn 0 1 -0
vn 0 1 -0
vn 0 1 -0
vn 0 1 -0
vn 0 1 -0
vn 0 1 -0
vn 0 1 -0
vn 0 1 -0
vn 0 1 -0
vn 0 1 -0
vn 0 1 -0
vn 0 1 -0
vn 0 1 -0
vn 0 1 -0
vn 0 1 -0
vn 0 1 -0
vn 0 1 -0
vn 0 1 -0
vn 0 1 -0
vn 0 1 -0
vn 0 1 -0
vn 0 1 -0
vn 0 1 -0
vn 0 1 -0
vn 0 1 -0
vn 0 1 -0
vn 0 1 -0
vn 0 1 -0
vn 0 1 -0
vn 0 1 -0
vn 0 1 -0
vn 0 1 -0
vn 0 1 -0
vn 0 1 -0
vn 0 1 -0
vn 0 1 -0
vn 0 1 -0
vn 0 1 -0
vn 0 1 -0
vn 0 1 -0
vn 0 1 -0
vn 0 1 -0
vn 0 1 -0
vn 0 1 -0
vn 0 1 -0
vn 0 1 -0
vn 0 1 -0
vn 0 1 -0
vn 0 1 -0
vn 0 1 -0
vn 0 1 -0
vn 0 1 -0
vn 0 1 -0
vn 0 1 -0
vn 0 1 -0
vn 0 1 -0
vn 0 1 -0
vn 0 1 -0
vn 0 1 -0
vn 0 1 -0
vn 0 1 -0
vn 0 1 -0
vn 0 1 -0
vn 0 1 -0
vn 0 1 -0
vn 0 1 -0
vn 0 1 -0
vn 0 1 -0
vn 0 1 -0
vn 0 1 -0
vn 0 1 -0
vn 0 1 -0
vn 0 1 -0
vn 0 1 -0
vn 0 1 -0
vn 0 1 -0
vn 0 1 -0
vn 0 1 -0
vn 0 1 -0
vn 0 1 -0
vn 0 1 -0
vn 0 1 -0
vn 0 1 -0
vn 0 1 -0
vn 0 1 -0
vn 0 1 -0
vn 0 1 -0
vn 0 1 -0
vn 0 1 -0
vn 0 1 -0
vn 0 1 -0
vn 0 1 -0
vn 0 1 -0
vn 0 1 -0
vn 0 1 -0
vn 0 1 -0
vn 0 1 -0
vn 0 1 -0
vn 0 1 -0
vn 0 1 -0
vn 0 1 -0
vn 0 1 -0
vn 0 1 -0
vn 0 1 -0
vn 0 1 -0
vn 0 1 -0
vn 0 1 -0
vn 0 1 -0
vn 0 1 -0
vn 0 1 -0
vn 0 1 -0
vn 0 1 -0
vn 0 1 -0
vn 0 1 -0
vn 0 1 -0
vn 0 1 -0
vn 0 1 -0
vn 0 1 -0
vn 0 1 -0
vn 0 1 -0
vn 0 1 -0
vn 0 1 -0
vn 0 1 -0
vn 0 1 -0
vn 0 1 -0
vn 0 1 -0
vn 0 1 -0
vn 0 1 -0
vn 0 1 -0
vn 0 1 -0
vn 0 1 -0
vn 0 1 -0
vn 0 1 -0
vn 0 1 -0
vn 0 1 -0
vn 0 1 -0
vn 0 1 -0
vn 0 1 -0
vn 0 1 -0
vn 0 1 -0
vn 0 1 -0
vn 0 1 -0
vn 0 1 -0
vn 0 1 -0
vn 0 1 -0
vn 0 1 -0
vn 0 1 -0
vn 0 1 -0
vn 0 1 -0
vn 0 1 -0
vn 0 1 -0
vn 0 1 -0
vn 0 1 -0
vn 0 1 -0
vn 0 1 -0
vn 0 1 -0
vn 0 1 -0
vn 0 1 -0
vn 0 1 -0
vn 0 1 -0
vn 0 1 -0
vn 0 1 -0
vn 0 1 -0
vn 0 1 -0
vn 0 1 -0
vn 0 1 -0
vn 0 1 -0
vn 0 1 -0
vn 0 1 -0
vn 0 1 -0
vn 0 1 -0
vn 0 1 -0
vn 0 1 -0
vn 0 1 -0
vn 0 1 -0
vn 0 1 -0
vn 0 1 -0
vn 0 1 -0
vn 0 1 -0
vn 0 1 -0
vn 0 1 -0
vn 0 1 -0
vn 0 1 -0
vn 0 1 -0
vn 0 1 -0
vn 0 1 -0
vn 0 1 -0
vn 0 1 -0
vn 0 1 -0
vn 0 1 -0
vn 0 1 -0
vn 0 1 -0
vn 0 1 -0
vn 0 1 -0
vn 0 1 -0
vn 0 1 -0
vn 0 1 -0
vn 0 1 -0
vn 0 1 -0
vn 0 1 -0
vn 0 1 -0
vn 0 1 -0
vn 0 1 -0
vn 0 1 -0
vn 0 1 -0
vn 0 1 -0
vn 0 1 -0
vn 0 1 -0
vn 0 1 -0
vn 0 1 -0
vn 0 1 -0
vn 0 1 -0
vn 0 1 -0
vn 0 1 -0
vn 0 1 -0
vn 0 1 -0
vn 0 1 -0
vn 0 1 -0
vn 0 1 -0
vn 0 1 -0
vn 0 1 -0
vn 0 1 -0
vn 0 1 -0
vn 0 1 -0
vn 0 1 -0
vn 0 1 -0
vn 0 1 -0
vn 0 1 -0
vn 0 1 -0
vn 0 1 -0
vn 0 1 -0
vn 0 1 -0
vn 0 1 -0
vn 0 1 -0
vn 0 1 -0
vn 0 1 -0
vn 0 1 -0
vn 0 1 -0
vn 0 1 -0
vn 0 1 -0
vn 0 1 -0
vn 0 1 -0
vn 0 1 -0
vn 0 1 -0
vn 0 1 -0
vn 0 1 -0
vn 0 1 -0
vn 0 1 -0
vn 0 1 -0
vn 0 1 -0
vn 0 1 -0
vn 0 1 -0
vn 0 1 -0
vn 0 1 -0
vn 0 1 -0
vn 0 1 -0
vn 0 1 -0
vn 0 1 -0
vn 0 1 -0
vn 0 1 -0
vn 0 1 -0
vn 0 1 -0
vn 0 1 -0
vn 0 1 -0
vn 0 1 -0
vn 0 1 -0
vn 0 1 -0
vn 0 1 -0
vn 0 1 -0
vn 0 1 -0
vn 0 1 -0
vn 0 1 -0
vn 0 1 -0
vn 0 1 -0
vn 0 1 -0
vn 0 1 -0
vn 0 1 -0
vn 0 1 -0
vn 0 1 -0
vn 0 1 -0
vn 0 1 -0
vn 0 1 -0
vn 0 1 -0
vn 0 1 -0
vn 0 1 -0
vn 0 1 -0
vn 0 1 -0
vn 0 1 -0
vn 0 1 -0
vn 0 1 -0
vn 0 1 -0
vn 0 1 -0
vn 0 1 -0
vn 0 1 -0
vn 0 1 -0
vn 0 1 -0
vn 0 1 -0
vn 0 1 -0
vn 0 1 -0
vn 0 1 -0
vn 0 1 -0
vn 0 1 -0
vn 0 1 -0
vn 0 1 -0
vn 0 1 -0
vn 0 1 -0
vn 0 1 -0
vn 0 1 -0
vn 0 1 -0
vn 0 1 -0
vn 0 1 -0
vn 0 1 -0
vn 0 1 -0
vn 0 1 -0
vn 0 1 -0
vn 0 1 -0
vn 0 1 -0
vn 0 1 -0
vn 0 1 -0
vn 0 1 -0
vn 0 1 -0
vn 0 1 -0
vn 0 1 -0
vn 0 1 -0
vn 0 1 -0
vn 0 1 -0
vn 0 1 -0
vn 0 1 -0
vn 0 1 -0
vn 0 1 -0
vn 0 1 -0
vn 0 1 -0
vn 0 1 -0
vn 0 1 -0
vn 0 1 -0
vn 0 1 -0
vn 0 1 -0
vn 0 1 -0
vn 0 1 -0
vn 0 1 -0
vn 0 1 -0
vn 0 1 -0
vn 0 1 -0
vn 0 1 -0
vn 0 1 -0
vn 0 1 -0
vn 0 1 -0
vn 0 1 -0
vn 0 1 -0
vn 0 1 -0
vn 0 1 -0
vn 0 1 -0
vn 0 1 -0
vn 0 1 -0
vn 0 1 -0
vn 0 1 -0
vn 0 1 -0
vn 0 1 -0
vn 0 1 -0
vn 0 1 -0
vn 0 1 -0
vn 0 1 -0
vn 0 1 -0
vn 0 1 -0
vn 0 1 -0
vn 0 1 -0
vn 0 1 -0
vn 0 1 -0
vn 0 1 -0
vn 0 1 -0
vn 0 1 -0
vn 0 1 -0
vn 0 1 -0
vn 0 1 -0
vn 0 1 -0
vn 0 1 -0
vn 0 1 -0
vn 0 1 -0
vn 0 1 -0
vn 0 1 -0
vn 0 1 -0
# 900 vertex normals

f 6//3 8//2 2//1
f 11//6 12//5 9//4
f 15//9 16//8 13//7
f 19//12 20//11 17//10
f 23//15 24//14 21//13
f 27//18 28//17 25//16
f 31//21 32//20 29//19
f 35//24 36//23 33//22
f 39//27 40//26 37//25
f 43//30 44//29 41//28
f 47//33 48//32 45//31
f 51//36 52//35 49//34
f 55//39 56//38 53//37
f 59//42 60//41 57//40
f 63//45 64//44 61//43
f 67//48 68//47 65//46
f 71//51 72//50 69//49
f 75//54 76//53 73//52
f 79//57 80//56 77//55
f 83//60 84//59 81//58
f 87//63 88//62 85//61
f 91//66 92//65 89//64
f 95//69 96//68 93//67
f 99//72 100//71 97//70
f 103//75 104//74 101//73
f 107//78 108//77 105//76
f 111//81 112//80 109//79
f 115//84 116//83 113//82
f 119//87 120//86 117//85
f 123//90 124//89 121//88
f 127//93 128//92 125//91
f 131//96 132//95 129//94
f 135//99 136//98 133//97
f 139//102 140//101 137//100
f 143//105 144//104 141//103
f 147//108 148//107 145//106
f 151//111 152//110 149//109
f 155//114 156//113 153//112
f 159//117 160//116 157//115
f 163//120 164//119 161//118
f 167//123 168//122 165//121
f 171//126 172//125 169//124
f 175//129 176//128 173//127
f 179//132 180//131 177//130
f 183//135 184//134 181//133
f 187//138 188//137 185//136
f 191//141 192//140 189//139
f 195//144 196//143 193//142
f 199//147 200//146 197//145
f 203//150 204//149 201//148
f 207//153 208//152 205//151
f 211//156 212//155 209//154
f 215//159 216//158 213//157
f 219//162 220//161 217//160
f 223//165 224//164 221//163
f 227//168 228//167 225//166
f 231//171 232//170 229//169
f 235//174 236//173 233//172
f 239//177 240//176 237//175
f 243//180 244//179 241//178
f 247//183 248//182 245//181
f 251//186 252//185 249//184
f 255//189 256//188 253//187
f 259//192 260//191 257//190
f 263//195 264//194 261//193
f 267//198 268//197 265//196
f 271//201 272//200 269//199
f 275//204 276//203 273//202
f 279//207 280//206 277//205
f 283//210 284//209 281//208
f 287//213 288//212 285//211
f 291//216 292//215 289//214
f 295//219 296//218 293//217
f 299//222 300//221 297//220
f 303//225 304//224 301//223
f 307//228 308//227 305//226
f 311//231 312//230 309//229
f 315//234 316//233 313//232
f 319//237 320//236 317//235
f 323//240 324//239 321//238
f 327//243 328//242 325//241
f 331//246 332//245 329//244
f 335//249 336//248 333//247
f 339//252 340//251 337//250
f 343//255 344//254 341//253
f 347//258 348//257 345//256
f 351//261 352//260 349//259
f 355//264 356//263 353//262
f 359//267 360//266 357//265
f 363//270 364//269 361//268
f 367//273 368//272 365//271
f 371//276 372//275 369//274
f 375//279 376//278 373//277
f 379//282 380//281 377//280
f 383//285 384//284 381//283
f 387//288 388//287 385//286
f 391//291 392//290 389//289
f 395//294 396//293 393//292
f 399//297 400//296 397//295
f 403//300 404//299 401//298
f 407//303 408//302 405//301
f 411//306 412//305 409//304
f 415//309 416//308 413//307
f 419//312 420//311 417//310
f 423//315 424//314 421//313
f 427//318 428//317 425//316
f 431//321 432//320 429//319
f 435//324 436//323 433//322
f 439//327 440//326 437//325
f 443//330 444//329 441//328
f 447//333 448//332 445//331
f 451//336 452//335 449//334
f 455//339 456//338 453//337
f 459//342 460//341 457//340
f 463//345 464//344 461//343
f 467//348 468//347 465//346
f 471//351 472//350 469//349
f 475//354 476//353 473//352
f 479//357 480//356 477//355
f 483//360 484//359 481//358
f 487//363 488//362 485//361
f 491//366 492//365 489//364
f 495//369 496//368 493//367
f 499//372 500//371 497//370
f 503//375 504//374 501//373
f 507//378 508//377 505//376
f 511//381 512//380 509//379
f 515//384 516//383 513//382
f 519//387 520//386 517//385
f 523//390 524//389 521//388
f 527//393 528//392 525//391
f 531//396 532//395 529//394
f 535//399 536//398 533//397
f 539//402 540//401 537//400
f 543//405 544//404 541//403
f 547//408 548//407 545//406
f 551//411 552//410 549//409
f 555//414 556//413 553//412
f 559//417 560//416 557//415
f 563//420 564//419 561//418
f 567//423 568//422 565//421
f 571//426 572//425 569//424
f 575//429 576//428 573//427
f 579//432 580//431 577//430
f 583//435 584//434 581//433
f 587//438 588//437 585//436
f 591//441 592//440 589//439
f 595//444 596//443 593//442
f 599//447 600//446 597//445
f 603//450 604//449 601//448
f 4//453 6//452 2//451
f 10//456 11//455 9//454
f 14//459 15//458 13//457
f 18//462 19//461 17//460
f 22//465 23//464 21//463
f 26//468 27//467 25//466
f 30//471 31//470 29//469
f 34//474 35//473 33//472
f 38//477 39//476 37//475
f 42//480 43//479 41//478
f 46//483 47//482 45//481
f 50//486 51//485 49//484
f 54//489 55//488 53//487
f 58//492 59//491 57//490
f 62//495 63//494 61//493
f 66//498 67//497 65//496
f 70//501 71//500 69//499
f 74//504 75//503 73//502
f 78//507 79//506 77//505
f 82//510 83//509 81//508
f 86//513 87//512 85//511
f 90//516 91//515 89//514
f 94//519 95//518 93//517
f 98//522 99//521 97//520
f 102//525 103//524 101//523
f 106//528 107//527 105//526
f 110//531 111//530 109//529
f 114//534 115//533 113//532
f 118//537 119//536 117//535
f 122//540 123//539 121//538
f 126//543 127//542 125//541
f 130//546 131//545 129//544
f 134//549 135//548 133//547
f 138//552 139//551 137//550
f 142//555 143//554 141//553
f 146//558 147//557 145//556
f 150//561 151//560 149//559
f 154//564 155//563 153//562
f 158//567 159//566 157//565
f 162//570 163//569 161//568
f 166//573 167//572 165//571
f 170//576 171//575 169//574
f 174//579 175//578 173//577
f 178//582 179//581 177//580
f 182//585 183//584 181//583
f 186//588 187//587 185//586
f 190//591 191//590 189//589
f 194//594 195//593 193//592
f 198//597 199//596 197//595
f 202//600 203//599 201//598
f 206//603 207//602 205//601
f 210//606 211//605 209//604
f 214//609 215//608 213//607
f 218//612 219//611 217//610
f 222//615 223//614 221//613
f 226//618 227//617 225//616
f 230//621 231//620 229//619
f 234//624 235//623 233//622
f 238//627 239//626 237//625
f 242//630 243//629 241//628
f 246//633 247//632 245//631
f 250//636 251//635 249//634
f 254//639 255//638 253//637
f 258//642 259//641 257//640
f 262//645 263//644 261//643
f 266//648 267//647 265//646
f 270//651 271//650 269//649
f 274//654 275//653 273//652
f 278//657 279//656 277//655
f 282//660 283//659 281//658
f 286//663 287//662 285//661
f 290//666 291//665 289//664
f 294//669 295//668 293//667
f 298//672 299//671 297//670
f 302//675 303//674 301//673
f 306//678 307//677 305//676
f 310//681 311//680 309//679
f 314//684 315//683 313//682
f 318//687 319//686 317//685
f 322//690 323//689 321//688
f 326//693 327//692 325//691
f 330//696 331//695 329//694
f 334//699 335//698 333//697
f 338//702 339//701 337//700
f 342//705 343//704 341//703
f 346//708 347//707 345//706
f 350//711 351//710 349//709
f 354//714 355//713 353//712
f 358//717 359//716 357//715
f 362//720 363//719 361//718
f 366//723 367//722 365//721
f 370//726 371//725 369//724
f 374//729 375//728 373//727
f 378//732 379//731 377//730
f 382//735 383//734 381//733
f 386//738 387//737 385//736
f 390//741 391//740 389//739
f 394//744 395//743 393//742
f 398//747 399//746 397//745
f 402//750 403//749 401//748
f 406//753 407//752 405//751
f 410//756 411//755 409//754
f 414//759 415//758 413//757
f 418//762 419//761 417//760
f 422//765 423//764 421//763
f 426//768 427//767 425//766
f 430//771 431//770 429//769
f 434//774 435//773 433//772
f 438//777 439//776 437//775
f 442//780 443//779 441//778
f 446//783 447//782 445//781
f 450//786 451//785 449//784
f 454//789 455//788 453//787
f 458//792 459//791 457//790
f 462//795 463//794 461//793
f 466//798 467//797 465//796
f 470//801 471//800 469//799
f 474//804 475//803 473//802
f 478//807 479//806 477//805
f 482//810 483//809 481//808
f 486//813 487//812 485//811
f 490//816 491//815 489//814
f 494//819 495//818 493//817
f 498//822 499//821 497//820
f 502//825 503//824 501//823
f 506//828 507//827 505//826
f 510//831 511//830 509//829
f 514//834 515//833 513//832
f 518//837 519//836 517//835
f 522//840 523//839 521//838
f 526//843 527//842 525//841
f 530//846 531//845 529//844
f 534//849 535//848 533//847
f 538//852 539//851 537//850
f 542//855 543//854 541//853
f 546//858 547//857 545//856
f 550//861 551//860 549//859
f 554//864 555//863 553//862
f 558//867 559//866 557//865
f 562//870 563//869 561//868
f 566//873 567//872 565//871
f 570//876 571//875 569//874
f 574//879 575//878 573//877
f 578//882 579//881 577//880
f 582//885 583//884 581//883
f 586//888 587//887 585//886
f 590//891 591//890 589//889
f 594//894 595//893 593//892
f 598//897 599//896 597//895
f 602//900 603//899 601//898
# 300 facets

o gray
v -250 -250 250
v -6 0 6
v 250 -250 250
v 820 0 6
v 250 -250 -250
v 820 0 -6
v -250 -250 -250
v -6 0 -6
# 8 vertices

vn 0 1 -0
vn 0 1 -0
vn 0 1 -0
vn 0 1 -0
vn 0 1 -0
vn 0 1 -0
# 6 vertex normals

f 610//903 612//902 606//901
f 608//906 610//905 606//904
# 2 facets

